<svg width="20" height="20" viewBox="0 0 20 20" fill="none" xmlns="http://www.w3.org/2000/svg">
<circle cx="10" cy="10" r="10" fill="#FF0088"/>
<path d="M7.85813 8.54554C7.81552 8.1857 7.6427 7.90634 7.33967 7.70748C7.03664 7.50861 6.66495 7.40918 6.22461 7.40918C5.90264 7.40918 5.62092 7.46126 5.37944 7.56543C5.14033 7.6696 4.9533 7.81283 4.81836 7.99512C4.68578 8.17741 4.6195 8.38456 4.6195 8.61657C4.6195 8.81069 4.66566 8.9776 4.75799 9.11728C4.85269 9.25459 4.97343 9.36941 5.12021 9.46174C5.26699 9.5517 5.42087 9.62627 5.58185 9.68546C5.74284 9.74228 5.8908 9.78844 6.02575 9.82395L6.76438 10.0228C6.95378 10.0725 7.16448 10.1412 7.39648 10.2288C7.63086 10.3164 7.85458 10.4359 8.06765 10.5874C8.28308 10.7366 8.46064 10.9284 8.60032 11.1627C8.74 11.3971 8.80984 11.6847 8.80984 12.0257C8.80984 12.4186 8.70685 12.7738 8.50089 13.091C8.29729 13.4082 7.99899 13.6604 7.606 13.8474C7.21538 14.0344 6.74071 14.1279 6.182 14.1279C5.66116 14.1279 5.21017 14.0439 4.82901 13.8758C4.45022 13.7077 4.15193 13.4733 3.93413 13.1727C3.71869 12.872 3.59677 12.5228 3.56836 12.1251H4.47745C4.50112 12.3997 4.59345 12.627 4.75444 12.8069C4.91779 12.9845 5.12376 13.117 5.37234 13.2046C5.62328 13.2899 5.89317 13.3325 6.182 13.3325C6.51817 13.3325 6.82002 13.278 7.08754 13.1691C7.35505 13.0579 7.56694 12.904 7.72319 12.7075C7.87944 12.5086 7.95756 12.2766 7.95756 12.0115C7.95756 11.77 7.89009 11.5735 7.75515 11.422C7.62021 11.2704 7.44265 11.1473 7.22248 11.0526C7.00231 10.9579 6.76438 10.8751 6.5087 10.8041L5.61381 10.5484C5.04563 10.385 4.59582 10.1518 4.26438 9.84881C3.93294 9.54578 3.76722 9.14924 3.76722 8.65918C3.76722 8.25198 3.87731 7.89687 4.09748 7.59384C4.32002 7.28844 4.61831 7.0517 4.99237 6.88361C5.36879 6.71316 5.789 6.62793 6.25302 6.62793C6.72177 6.62793 7.13844 6.71197 7.50302 6.88006C7.8676 7.04578 8.15643 7.27305 8.3695 7.56188C8.58493 7.8507 8.69857 8.17859 8.7104 8.54554H7.85813Z" fill="white"/>
<path d="M13.0021 14.0001H10.7578V6.72736H13.1016C13.8071 6.72736 14.4107 6.87296 14.9126 7.16415C15.4145 7.45298 15.7992 7.86846 16.0668 8.4106C16.3343 8.95037 16.468 9.59668 16.468 10.3495C16.468 11.1071 16.3331 11.7593 16.0632 12.3062C15.7933 12.8507 15.4003 13.2697 14.8842 13.5633C14.3681 13.8545 13.7408 14.0001 13.0021 14.0001ZM11.6385 13.2188H12.9453C13.5466 13.2188 14.045 13.1028 14.4403 12.8708C14.8357 12.6388 15.1304 12.3086 15.3246 11.8801C15.5187 11.4516 15.6158 10.9414 15.6158 10.3495C15.6158 9.7624 15.5199 9.25695 15.3281 8.83319C15.1364 8.40705 14.8499 8.08034 14.4688 7.85307C14.0876 7.62343 13.6129 7.50861 13.0447 7.50861H11.6385V13.2188Z" fill="white"/>
</svg>
