<svg width="6" height="9" viewBox="0 0 6 9" fill="none" xmlns="http://www.w3.org/2000/svg">
<path d="M1.58268 4.5L6 7.24138L6 9L-3.3914e-07 5.12069L-4.47665e-07 3.87931L6 0L6 1.75862L1.58268 4.5Z" fill="#222323"/>
</svg>
