<svg width="24" height="25" viewBox="0 0 24 25" fill="none" xmlns="http://www.w3.org/2000/svg">
<path d="M12 0.5C5.37258 0.5 0 5.87258 0 12.5C0 19.1274 5.37258 24.5 12 24.5C18.6274 24.5 24 19.1274 24 12.5C24 9.3174 22.7357 6.26516 20.4853 4.01472C18.2348 1.76428 15.1826 0.5 12 0.5ZM12 22.1C6.69807 22.1 2.4 17.8019 2.4 12.5C2.4 7.19807 6.69807 2.9 12 2.9C17.3019 2.9 21.6 7.19807 21.6 12.5C21.6 15.0461 20.5886 17.4879 18.7882 19.2882C16.9879 21.0886 14.5461 22.1 12 22.1ZM13.2 13.1C13.2 12.7686 12.9314 12.5 12.6 12.5H11.4C11.0686 12.5 10.8 12.7686 10.8 13.1V16.7C10.8 17.0314 11.0686 17.3 11.4 17.3H12.6C12.9314 17.3 13.2 17.0314 13.2 16.7V13.1ZM13.2 8.3C13.2 7.96863 12.9314 7.7 12.6 7.7H11.4C11.0686 7.7 10.8 7.96863 10.8 8.3V9.5C10.8 9.83137 11.0686 10.1 11.4 10.1H12.6C12.9314 10.1 13.2 9.83137 13.2 9.5V8.3Z" fill="#0089DB"/>
</svg>
